﻿<?xml version="1.0" encoding="utf-8"?>
<svg version="1.1" xmlns:xlink="http://www.w3.org/1999/xlink" width="150px" height="150px" xmlns="http://www.w3.org/2000/svg">
  <g transform="matrix(1 0 0 1 -450 -140 )">
    <path d="M 525 140  C 567 140  600 173  600 215  C 600 257  567 290  525 290  C 483 290  450 257  450 215  C 450 173  483 140  525 140  Z " fill-rule="nonzero" fill="#00bcd4" stroke="none" />
  </g>
</svg>