﻿<?xml version="1.0" encoding="utf-8"?>
<svg version="1.1" xmlns:xlink="http://www.w3.org/1999/xlink" width="150px" height="150px" xmlns="http://www.w3.org/2000/svg">
  <g transform="matrix(1 0 0 1 -370 -620 )">
    <path d="M 445 620  C 487 620  520 653  520 695  C 520 737  487 770  445 770  C 403 770  370 737  370 695  C 370 653  403 620  445 620  Z " fill-rule="nonzero" fill="#e91e63" stroke="none" />
  </g>
</svg>