﻿<?xml version="1.0" encoding="utf-8"?>
<svg version="1.1" xmlns:xlink="http://www.w3.org/1999/xlink" width="170px" height="170px" xmlns="http://www.w3.org/2000/svg">
  <g transform="matrix(1 0 0 1 -790 -130 )">
    <path d="M 875 132  C 921.48 132  958 168.52  958 215  C 958 261.48  921.48 298  875 298  C 828.52 298  792 261.48  792 215  C 792 168.52  828.52 132  875 132  Z " fill-rule="nonzero" fill="#ffffff" stroke="none" fill-opacity="0" />
    <path d="M 875 131.5  C 921.76 131.5  958.5 168.24  958.5 215  C 958.5 261.76  921.76 298.5  875 298.5  C 828.24 298.5  791.5 261.76  791.5 215  C 791.5 168.24  828.24 131.5  875 131.5  Z " stroke-width="3" stroke="#ffc107" fill="none" />
  </g>
</svg>