<svg xmlns="http://www.w3.org/2000/svg" width="18.764" height="23.283" viewBox="0 0 18.764 23.283">
  <g id="Group_257" data-name="Group 257" transform="translate(1 1)">
    <rect id="Rectangle_5" data-name="Rectangle 5" width="16.764" height="21.283" rx="2" fill="none" stroke="#5dff00" stroke-linecap="round" stroke-linejoin="round" stroke-width="2"/>
    <rect id="Rectangle_6" data-name="Rectangle 6" width="5.831" height="1.458" transform="translate(2.332 4.519)" fill="#5dff00"/>
    <rect id="Rectangle_7" data-name="Rectangle 7" width="6.706" height="1.458" transform="translate(2.332 7.434)" fill="#5dff00"/>
    <rect id="Rectangle_8" data-name="Rectangle 8" width="12.091" height="1.458" transform="translate(2.332 10.35)" fill="#5dff00"/>
    <rect id="Rectangle_9" data-name="Rectangle 9" width="12.091" height="1.458" transform="translate(2.332 13.265)" fill="#5dff00"/>
    <rect id="Rectangle_10" data-name="Rectangle 10" width="12.091" height="1.458" transform="translate(2.332 16.181)" fill="#5dff00"/>
  </g>
</svg>
